%YAML 1.1
%TAG !u! tag:unity3d.com,2011:
--- !u!21 &2100000
Material:
  serializedVersion: 6
  m_ObjectHideFlags: 0
  m_CorrespondingSourceObject: {fileID: 0}
  m_PrefabInstance: {fileID: 0}
  m_PrefabAsset: {fileID: 0}
  m_Name: characterSkinMat5
  m_Shader: {fileID: -6465566751694194690, guid: 7e4be5fa1691f024fb77a0f971431455,
    type: 3}
  m_ShaderKeywords: 
  m_LightmapFlags: 4
  m_EnableInstancingVariants: 0
  m_DoubleSidedGI: 0
  m_CustomRenderQueue: -1
  stringTagMap: {}
  disabledShaderPasses: []
  m_SavedProperties:
    serializedVersion: 3
    m_TexEnvs:
    - Texture2D_14F1A471:
        m_Texture: {fileID: 2800000, guid: 6a4cfb578f3f57c4c81cbc0bb2438829, type: 3}
        m_Scale: {x: 1, y: 1}
        m_Offset: {x: 0, y: 0}
    - Texture2D_7500B967:
        m_Texture: {fileID: 2800000, guid: 659a551060b27994193f2d885bf6f8e1, type: 3}
        m_Scale: {x: 1, y: 1}
        m_Offset: {x: 0, y: 0}
    - Texture2D_C1DB5C8F:
        m_Texture: {fileID: 2800000, guid: 688cab0fd34ec8446a5cf590937f34d0, type: 3}
        m_Scale: {x: 1, y: 1}
        m_Offset: {x: 0, y: 0}
    - _MainTex:
        m_Texture: {fileID: 2800000, guid: 27c64d542b07c9c42ae5f359db2c59ac, type: 3}
        m_Scale: {x: 1, y: 1}
        m_Offset: {x: 0, y: 0}
    m_Floats:
    - Vector1_6BEA0FCA: 1
    - Vector1_6FF33C8D: 0.2
    - Vector1_701EE2A2: 20
    - Vector1_72223E3: 2
    - Vector1_D4941C5E: 2
    - Vector1_E6A42DF7: 1
    - Vector1_F5F566CE: 0
    m_Colors:
    - Color_1419722C: {r: 1, g: 1, b: 1, a: 0}
    - Color_2FB10DDB: {r: 1, g: 1, b: 1, a: 0}
    - Color_44AFF30E: {r: 0, g: 0, b: 0, a: 0}
    - Color_A13EC3BD: {r: 1, g: 1, b: 1, a: 0}
    - Color_C6F9F7BC: {r: 1, g: 0.5228758, b: 0, a: 1}
    - Vector2_4E032B4D: {r: 1, g: 1, b: 0, a: 0}
    - Vector2_5E4C479F: {r: 1, g: 1, b: 0, a: 0}
    - Vector2_7FB0925C: {r: 1, g: 1, b: 0, a: 0}
    - Vector2_9B6A9BB5: {r: 0, g: 0, b: 0, a: 0}
    - _Color: {r: 1, g: 1, b: 1, a: 1}
