%YAML 1.1
%TAG !u! tag:unity3d.com,2011:
--- !u!21 &2100000
Material:
  serializedVersion: 6
  m_ObjectHideFlags: 0
  m_CorrespondingSourceObject: {fileID: 0}
  m_PrefabInstance: {fileID: 0}
  m_PrefabAsset: {fileID: 0}
  m_Name: colorpaletteMat
  m_Shader: {fileID: -6465566751694194690, guid: 7e4be5fa1691f024fb77a0f971431455,
    type: 3}
  m_ShaderKeywords: 
  m_LightmapFlags: 4
  m_EnableInstancingVariants: 0
  m_DoubleSidedGI: 0
  m_CustomRenderQueue: -1
  stringTagMap: {}
  disabledShaderPasses: []
  m_SavedProperties:
    serializedVersion: 3
    m_TexEnvs:
    - Texture2D_7500B967:
        m_Texture: {fileID: 2800000, guid: 9a2a977664fbb7e44af2ed7ee7f979ae, type: 3}
        m_Scale: {x: 1, y: 1}
        m_Offset: {x: 0, y: 0}
    m_Floats:
    - Boolean_32F60D97: 0
    - Vector1_21478204: 0.34
    - Vector1_E6A42DF7: 0
    - Vector1_F5F566CE: 0
    m_Colors:
    - Color_1419722C: {r: 1, g: 1, b: 1, a: 1}
    - Color_357673FB: {r: 0, g: 0, b: 0, a: 0}
    - Color_44AFF30E: {r: 1, g: 1, b: 1, a: 0}
    - Vector2_5E4C479F: {r: 1, g: 1, b: 0, a: 0}
    - Vector2_9B6A9BB5: {r: 0, g: 0, b: 0, a: 0}
