%YAML 1.1
%TAG !u! tag:unity3d.com,2011:
--- !u!1 &9101382337343450390
GameObject:
  m_ObjectHideFlags: 0
  m_CorrespondingSourceObject: {fileID: 0}
  m_PrefabInstance: {fileID: 0}
  m_PrefabAsset: {fileID: 0}
  serializedVersion: 6
  m_Component:
  - component: {fileID: 9101382337343090998}
  - component: {fileID: 9101382337344385302}
  - component: {fileID: 9101382337345385430}
  m_Layer: 0
  m_Name: dentists chair
  m_TagString: Untagged
  m_Icon: {fileID: 0}
  m_NavMeshLayer: 0
  m_StaticEditorFlags: 0
  m_IsActive: 1
--- !u!4 &9101382337343090998
Transform:
  m_ObjectHideFlags: 0
  m_CorrespondingSourceObject: {fileID: 0}
  m_PrefabInstance: {fileID: 0}
  m_PrefabAsset: {fileID: 0}
  m_GameObject: {fileID: 9101382337343450390}
  m_LocalRotation: {x: -0, y: -0, z: -0, w: 1}
  m_LocalPosition: {x: -7.9358826, y: 15.999801, z: 16.470276}
  m_LocalScale: {x: 1, y: 1, z: 1}
  m_Children: []
  m_Father: {fileID: 0}
  m_RootOrder: 0
  m_LocalEulerAnglesHint: {x: 0, y: 0, z: 0}
--- !u!33 &9101382337344385302
MeshFilter:
  m_ObjectHideFlags: 0
  m_CorrespondingSourceObject: {fileID: 0}
  m_PrefabInstance: {fileID: 0}
  m_PrefabAsset: {fileID: 0}
  m_GameObject: {fileID: 9101382337343450390}
  m_Mesh: {fileID: 4300000, guid: 3086214b0f72a2743946b1eff83ff74f, type: 3}
--- !u!23 &9101382337345385430
MeshRenderer:
  m_ObjectHideFlags: 0
  m_CorrespondingSourceObject: {fileID: 0}
  m_PrefabInstance: {fileID: 0}
  m_PrefabAsset: {fileID: 0}
  m_GameObject: {fileID: 9101382337343450390}
  m_Enabled: 1
  m_CastShadows: 1
  m_ReceiveShadows: 1
  m_DynamicOccludee: 1
  m_MotionVectors: 1
  m_LightProbeUsage: 1
  m_ReflectionProbeUsage: 1
  m_RayTracingMode: 2
  m_RenderingLayerMask: 1
  m_RendererPriority: 0
  m_Materials:
  - {fileID: 2100000, guid: b2244d518a235cf41bd30682329b61b4, type: 2}
  - {fileID: 2100000, guid: e1617fea8919af84890617405500aad3, type: 2}
  - {fileID: 2100000, guid: 09f71c54ea4a6fa489d21197441cd87f, type: 2}
  - {fileID: 2100000, guid: 1644f696e275325408b0fa6ab325263d, type: 2}
  - {fileID: 2100000, guid: a23073e51f0aea2419c5edee151dcfa4, type: 2}
  - {fileID: 2100000, guid: 0639fbc6995eacc4fa5fb204af69f48e, type: 2}
  - {fileID: 2100000, guid: 8167958bf5038354ea4a4dd73cde1e8d, type: 2}
  - {fileID: 2100000, guid: b2244d518a235cf41bd30682329b61b4, type: 2}
  - {fileID: 2100000, guid: e1617fea8919af84890617405500aad3, type: 2}
  - {fileID: 2100000, guid: 7146ea8f70202f74fb0bb6d2514fbb5b, type: 2}
  - {fileID: 2100000, guid: e77a4f60fc5488c4bad0d0e47c568be0, type: 2}
  m_StaticBatchInfo:
    firstSubMesh: 0
    subMeshCount: 0
  m_StaticBatchRoot: {fileID: 0}
  m_ProbeAnchor: {fileID: 0}
  m_LightProbeVolumeOverride: {fileID: 0}
  m_ScaleInLightmap: 1
  m_ReceiveGI: 1
  m_PreserveUVs: 0
  m_IgnoreNormalsForChartDetection: 0
  m_ImportantGI: 0
  m_StitchLightmapSeams: 0
  m_SelectedEditorRenderState: 3
  m_MinimumChartSize: 4
  m_AutoUVMaxDistance: 0.5
  m_AutoUVMaxAngle: 89
  m_LightmapParameters: {fileID: 0}
  m_SortingLayerID: 0
  m_SortingLayer: 0
  m_SortingOrder: 0
