%YAML 1.1
%TAG !u! tag:unity3d.com,2011:
--- !u!1 &6807592918889853179
GameObject:
  m_ObjectHideFlags: 0
  m_CorrespondingSourceObject: {fileID: 0}
  m_PrefabInstance: {fileID: 0}
  m_PrefabAsset: {fileID: 0}
  serializedVersion: 6
  m_Component:
  - component: {fileID: 6807592918889753819}
  - component: {fileID: 6807592918888951035}
  - component: {fileID: 6807592918887853627}
  m_Layer: 0
  m_Name: picture4
  m_TagString: Untagged
  m_Icon: {fileID: 0}
  m_NavMeshLayer: 0
  m_StaticEditorFlags: 0
  m_IsActive: 1
--- !u!4 &6807592918889753819
Transform:
  m_ObjectHideFlags: 0
  m_CorrespondingSourceObject: {fileID: 0}
  m_PrefabInstance: {fileID: 0}
  m_PrefabAsset: {fileID: 0}
  m_GameObject: {fileID: 6807592918889853179}
  m_LocalRotation: {x: -0, y: -0, z: -0, w: 1}
  m_LocalPosition: {x: -10.26889, y: 16.399946, z: 15.986267}
  m_LocalScale: {x: 1, y: 1, z: 1}
  m_Children: []
  m_Father: {fileID: 0}
  m_RootOrder: 0
  m_LocalEulerAnglesHint: {x: 0, y: 0, z: 0}
--- !u!33 &6807592918888951035
MeshFilter:
  m_ObjectHideFlags: 0
  m_CorrespondingSourceObject: {fileID: 0}
  m_PrefabInstance: {fileID: 0}
  m_PrefabAsset: {fileID: 0}
  m_GameObject: {fileID: 6807592918889853179}
  m_Mesh: {fileID: 4300000, guid: eb8f25d2cfefca84093f5e1873d5638f, type: 3}
--- !u!23 &6807592918887853627
MeshRenderer:
  m_ObjectHideFlags: 0
  m_CorrespondingSourceObject: {fileID: 0}
  m_PrefabInstance: {fileID: 0}
  m_PrefabAsset: {fileID: 0}
  m_GameObject: {fileID: 6807592918889853179}
  m_Enabled: 1
  m_CastShadows: 1
  m_ReceiveShadows: 1
  m_DynamicOccludee: 1
  m_MotionVectors: 1
  m_LightProbeUsage: 1
  m_ReflectionProbeUsage: 1
  m_RenderingLayerMask: 1
  m_RendererPriority: 0
  m_Materials:
  - {fileID: 2100000, guid: eb8f25d2cfefca84093f5e1873d5638f, type: 3}
  - {fileID: 2100002, guid: eb8f25d2cfefca84093f5e1873d5638f, type: 3}
  - {fileID: 2100004, guid: eb8f25d2cfefca84093f5e1873d5638f, type: 3}
  - {fileID: 2100006, guid: eb8f25d2cfefca84093f5e1873d5638f, type: 3}
  - {fileID: 2100008, guid: eb8f25d2cfefca84093f5e1873d5638f, type: 3}
  - {fileID: 2100010, guid: eb8f25d2cfefca84093f5e1873d5638f, type: 3}
  - {fileID: 2100012, guid: eb8f25d2cfefca84093f5e1873d5638f, type: 3}
  m_StaticBatchInfo:
    firstSubMesh: 0
    subMeshCount: 0
  m_StaticBatchRoot: {fileID: 0}
  m_ProbeAnchor: {fileID: 0}
  m_LightProbeVolumeOverride: {fileID: 0}
  m_ScaleInLightmap: 1
  m_PreserveUVs: 0
  m_IgnoreNormalsForChartDetection: 0
  m_ImportantGI: 0
  m_StitchLightmapSeams: 0
  m_SelectedEditorRenderState: 3
  m_MinimumChartSize: 4
  m_AutoUVMaxDistance: 0.5
  m_AutoUVMaxAngle: 89
  m_LightmapParameters: {fileID: 0}
  m_SortingLayerID: 0
  m_SortingLayer: 0
  m_SortingOrder: 0
